FTHISSH*T|500|15|15|50|~
Doomhammer|Weapon|"The best weapon in the game!"|1000|40|
|
|
0
WeakArmor|Armor|"You can poke holes through it!"|100|10|~|RegularArmor|Armor|"Decent, but not the best"|500|20|~|PremiumArmor|Armor|"Made of actual diamonds!"|800|30|~|Apple|Health|"Everyone loves apples!"|50|100|~|FunnelCake|Health|"Get your funnel cakes!"|100|300|
Loatheb|250|35|15|450|~|Kel'Thuzad|350|50|25|750|
